^C:\USERS\LENOVO\SOURCE\REPOS\NBA\NBA\STDAFX.CPP
/c /I"C:\SFML-2.5.1\INCLUDE" /ZI /JMC /nologo /W3 /WX- /diagnostics:classic /sdl /Od /Oy- /D WIN32 /D _DEBUG /D _WINDOWS /D _UNICODE /D UNICODE /Gm- /EHsc /RTC1 /MDd /GS /fp:precise /permissive- /Zc:wchar_t /Zc:forScope /Zc:inline /Yc"stdafx.h" /Fp"DEBUG\NBA.PCH" /Fo"DEBUG\\" /Fd"DEBUG\VC141.PDB" /Gd /TP /analyze- /FC C:\USERS\LENOVO\SOURCE\REPOS\NBA\NBA\STDAFX.CPP
^C:\USERS\LENOVO\SOURCE\REPOS\NBA\NBA\NBA.CPP
/c /I"C:\SFML-2.5.1\INCLUDE" /ZI /JMC /nologo /W3 /WX- /diagnostics:classic /sdl /Od /Oy- /D WIN32 /D _DEBUG /D _WINDOWS /D _UNICODE /D UNICODE /Gm- /EHsc /RTC1 /MDd /GS /fp:precise /permissive- /Zc:wchar_t /Zc:forScope /Zc:inline /Yu"stdafx.h" /Fp"DEBUG\NBA.PCH" /Fo"DEBUG\\" /Fd"DEBUG\VC141.PDB" /Gd /TP /analyze- /FC C:\USERS\LENOVO\SOURCE\REPOS\NBA\NBA\NBA.CPP
