^C:\USERS\OJEFFOLIVEIRA\SOURCE\REPOS\NBA\NBA\STDAFX.CPP
C:\PROGRAM FILES (X86)\MICROSOFT VISUAL STUDIO\2019\COMMUNITY\VC\TOOLS\MSVC\14.20.27508\BIN\HOSTX86\X86\1046\CLUI.DLL
C:\WINDOWS\GLOBALIZATION\SORTING\SORTDEFAULT.NLS
C:\WINDOWS\SYSTEM32\TZRES.DLL
C:\USERS\OJEFFOLIVEIRA\SOURCE\REPOS\NBA\NBA\STDAFX.H
C:\USERS\OJEFFOLIVEIRA\SOURCE\REPOS\NBA\NBA\TARGETVER.H
C:\PROGRAM FILES (X86)\WINDOWS KITS\10\INCLUDE\10.0.17763.0\SHARED\SDKDDKVER.H
C:\PROGRAM FILES (X86)\WINDOWS KITS\10\INCLUDE\10.0.17763.0\UM\WINDOWS.H
C:\PROGRAM FILES (X86)\WINDOWS KITS\10\INCLUDE\10.0.17763.0\SHARED\WINAPIFAMILY.H
C:\PROGRAM FILES (X86)\WINDOWS KITS\10\INCLUDE\10.0.17763.0\SHARED\WINPACKAGEFAMILY.H
C:\PROGRAM FILES (X86)\MICROSOFT VISUAL STUDIO\2019\COMMUNITY\VC\TOOLS\MSVC\14.20.27508\INCLUDE\EXCPT.H
C:\PROGRAM FILES (X86)\MICROSOFT VISUAL STUDIO\2019\COMMUNITY\VC\TOOLS\MSVC\14.20.27508\INCLUDE\VCRUNTIME.H
C:\PROGRAM FILES (X86)\MICROSOFT VISUAL STUDIO\2019\COMMUNITY\VC\TOOLS\MSVC\14.20.27508\INCLUDE\SAL.H
C:\PROGRAM FILES (X86)\MICROSOFT VISUAL STUDIO\2019\COMMUNITY\VC\TOOLS\MSVC\14.20.27508\INCLUDE\CONCURRENCYSAL.H
C:\PROGRAM FILES (X86)\MICROSOFT VISUAL STUDIO\2019\COMMUNITY\VC\TOOLS\MSVC\14.20.27508\INCLUDE\VADEFS.H
C:\PROGRAM FILES (X86)\MICROSOFT VISUAL STUDIO\2019\COMMUNITY\VC\TOOLS\MSVC\14.20.27508\INCLUDE\STDARG.H
C:\PROGRAM FILES (X86)\WINDOWS KITS\10\INCLUDE\10.0.17763.0\SHARED\WINDEF.H
C:\PROGRAM FILES (X86)\WINDOWS KITS\10\INCLUDE\10.0.17763.0\SHARED\MINWINDEF.H
C:\PROGRAM FILES (X86)\WINDOWS KITS\10\INCLUDE\10.0.17763.0\SHARED\SPECSTRINGS.H
C:\PROGRAM FILES (X86)\WINDOWS KITS\10\INCLUDE\10.0.17763.0\SHARED\SPECSTRINGS_STRICT.H
C:\PROGRAM FILES (X86)\WINDOWS KITS\10\INCLUDE\10.0.17763.0\SHARED\SPECSTRINGS_UNDEF.H
C:\PROGRAM FILES (X86)\WINDOWS KITS\10\INCLUDE\10.0.17763.0\SHARED\DRIVERSPECS.H
C:\PROGRAM FILES (X86)\WINDOWS KITS\10\INCLUDE\10.0.17763.0\SHARED\SDV_DRIVERSPECS.H
C:\PROGRAM FILES (X86)\WINDOWS KITS\10\INCLUDE\10.0.17763.0\UM\WINNT.H
C:\PROGRAM FILES (X86)\WINDOWS KITS\10\INCLUDE\10.0.17763.0\UCRT\CTYPE.H
C:\PROGRAM FILES (X86)\WINDOWS KITS\10\INCLUDE\10.0.17763.0\UCRT\CORECRT.H
C:\PROGRAM FILES (X86)\WINDOWS KITS\10\INCLUDE\10.0.17763.0\UCRT\CORECRT_WCTYPE.H
C:\PROGRAM FILES (X86)\WINDOWS KITS\10\INCLUDE\10.0.17763.0\SHARED\KERNELSPECS.H
C:\PROGRAM FILES (X86)\WINDOWS KITS\10\INCLUDE\10.0.17763.0\SHARED\BASETSD.H
C:\PROGRAM FILES (X86)\WINDOWS KITS\10\INCLUDE\10.0.17763.0\SHARED\GUIDDEF.H
C:\PROGRAM FILES (X86)\WINDOWS KITS\10\INCLUDE\10.0.17763.0\UCRT\STRING.H
C:\PROGRAM FILES (X86)\WINDOWS KITS\10\INCLUDE\10.0.17763.0\UCRT\CORECRT_MEMORY.H
C:\PROGRAM FILES (X86)\WINDOWS KITS\10\INCLUDE\10.0.17763.0\UCRT\CORECRT_MEMCPY_S.H
C:\PROGRAM FILES (X86)\WINDOWS KITS\10\INCLUDE\10.0.17763.0\UCRT\ERRNO.H
C:\PROGRAM FILES (X86)\MICROSOFT VISUAL STUDIO\2019\COMMUNITY\VC\TOOLS\MSVC\14.20.27508\INCLUDE\VCRUNTIME_STRING.H
C:\PROGRAM FILES (X86)\WINDOWS KITS\10\INCLUDE\10.0.17763.0\UCRT\CORECRT_WSTRING.H
C:\PROGRAM FILES (X86)\WINDOWS KITS\10\INCLUDE\10.0.17763.0\SHARED\PSHPACK4.H
C:\PROGRAM FILES (X86)\WINDOWS KITS\10\INCLUDE\10.0.17763.0\SHARED\POPPACK.H
C:\PROGRAM FILES (X86)\WINDOWS KITS\10\INCLUDE\10.0.17763.0\SHARED\PSHPACK2.H
C:\PROGRAM FILES (X86)\WINDOWS KITS\10\INCLUDE\10.0.17763.0\SHARED\PSHPACK8.H
C:\PROGRAM FILES (X86)\WINDOWS KITS\10\INCLUDE\10.0.17763.0\SHARED\PSHPACK1.H
C:\PROGRAM FILES (X86)\WINDOWS KITS\10\INCLUDE\10.0.17763.0\SHARED\APISET.H
C:\PROGRAM FILES (X86)\WINDOWS KITS\10\INCLUDE\10.0.17763.0\SHARED\KTMTYPES.H
C:\PROGRAM FILES (X86)\WINDOWS KITS\10\INCLUDE\10.0.17763.0\UM\WINBASE.H
C:\PROGRAM FILES (X86)\WINDOWS KITS\10\INCLUDE\10.0.17763.0\SHARED\APISETCCONV.H
C:\PROGRAM FILES (X86)\WINDOWS KITS\10\INCLUDE\10.0.17763.0\UM\MINWINBASE.H
C:\PROGRAM FILES (X86)\WINDOWS KITS\10\INCLUDE\10.0.17763.0\UM\APIQUERY2.H
C:\PROGRAM FILES (X86)\WINDOWS KITS\10\INCLUDE\10.0.17763.0\UM\PROCESSENV.H
C:\PROGRAM FILES (X86)\WINDOWS KITS\10\INCLUDE\10.0.17763.0\UM\FILEAPI.H
C:\PROGRAM FILES (X86)\WINDOWS KITS\10\INCLUDE\10.0.17763.0\UM\DEBUGAPI.H
C:\PROGRAM FILES (X86)\WINDOWS KITS\10\INCLUDE\10.0.17763.0\UM\UTILAPISET.H
C:\PROGRAM FILES (X86)\WINDOWS KITS\10\INCLUDE\10.0.17763.0\UM\HANDLEAPI.H
C:\PROGRAM FILES (X86)\WINDOWS KITS\10\INCLUDE\10.0.17763.0\UM\ERRHANDLINGAPI.H
C:\PROGRAM FILES (X86)\WINDOWS KITS\10\INCLUDE\10.0.17763.0\UM\FIBERSAPI.H
C:\PROGRAM FILES (X86)\WINDOWS KITS\10\INCLUDE\10.0.17763.0\UM\NAMEDPIPEAPI.H
C:\PROGRAM FILES (X86)\WINDOWS KITS\10\INCLUDE\10.0.17763.0\UM\PROFILEAPI.H
C:\PROGRAM FILES (X86)\WINDOWS KITS\10\INCLUDE\10.0.17763.0\UM\HEAPAPI.H
C:\PROGRAM FILES (X86)\WINDOWS KITS\10\INCLUDE\10.0.17763.0\UM\IOAPISET.H
C:\PROGRAM FILES (X86)\WINDOWS KITS\10\INCLUDE\10.0.17763.0\UM\SYNCHAPI.H
C:\PROGRAM FILES (X86)\WINDOWS KITS\10\INCLUDE\10.0.17763.0\UM\INTERLOCKEDAPI.H
C:\PROGRAM FILES (X86)\WINDOWS KITS\10\INCLUDE\10.0.17763.0\UM\PROCESSTHREADSAPI.H
C:\PROGRAM FILES (X86)\WINDOWS KITS\10\INCLUDE\10.0.17763.0\UM\SYSINFOAPI.H
C:\PROGRAM FILES (X86)\WINDOWS KITS\10\INCLUDE\10.0.17763.0\UM\MEMORYAPI.H
C:\PROGRAM FILES (X86)\WINDOWS KITS\10\INCLUDE\10.0.17763.0\UM\ENCLAVEAPI.H
C:\PROGRAM FILES (X86)\WINDOWS KITS\10\INCLUDE\10.0.17763.0\UM\THREADPOOLLEGACYAPISET.H
C:\PROGRAM FILES (X86)\WINDOWS KITS\10\INCLUDE\10.0.17763.0\UM\THREADPOOLAPISET.H
C:\PROGRAM FILES (X86)\WINDOWS KITS\10\INCLUDE\10.0.17763.0\UM\JOBAPI.H
C:\PROGRAM FILES (X86)\WINDOWS KITS\10\INCLUDE\10.0.17763.0\UM\JOBAPI2.H
C:\PROGRAM FILES (X86)\WINDOWS KITS\10\INCLUDE\10.0.17763.0\UM\WOW64APISET.H
C:\PROGRAM FILES (X86)\WINDOWS KITS\10\INCLUDE\10.0.17763.0\UM\LIBLOADERAPI.H
C:\PROGRAM FILES (X86)\WINDOWS KITS\10\INCLUDE\10.0.17763.0\UM\SECURITYBASEAPI.H
C:\PROGRAM FILES (X86)\WINDOWS KITS\10\INCLUDE\10.0.17763.0\UM\NAMESPACEAPI.H
C:\PROGRAM FILES (X86)\WINDOWS KITS\10\INCLUDE\10.0.17763.0\UM\SYSTEMTOPOLOGYAPI.H
C:\PROGRAM FILES (X86)\WINDOWS KITS\10\INCLUDE\10.0.17763.0\UM\PROCESSTOPOLOGYAPI.H
C:\PROGRAM FILES (X86)\WINDOWS KITS\10\INCLUDE\10.0.17763.0\UM\SECURITYAPPCONTAINER.H
C:\PROGRAM FILES (X86)\WINDOWS KITS\10\INCLUDE\10.0.17763.0\UM\REALTIMEAPISET.H
C:\PROGRAM FILES (X86)\WINDOWS KITS\10\INCLUDE\10.0.17763.0\SHARED\WINERROR.H
C:\PROGRAM FILES (X86)\WINDOWS KITS\10\INCLUDE\10.0.17763.0\UM\TIMEZONEAPI.H
C:\PROGRAM FILES (X86)\WINDOWS KITS\10\INCLUDE\10.0.17763.0\UM\WINGDI.H
C:\PROGRAM FILES (X86)\WINDOWS KITS\10\INCLUDE\10.0.17763.0\UM\WINUSER.H
C:\PROGRAM FILES (X86)\WINDOWS KITS\10\INCLUDE\10.0.17763.0\SHARED\TVOUT.H
C:\PROGRAM FILES (X86)\WINDOWS KITS\10\INCLUDE\10.0.17763.0\UM\WINNLS.H
C:\PROGRAM FILES (X86)\WINDOWS KITS\10\INCLUDE\10.0.17763.0\UM\DATETIMEAPI.H
C:\PROGRAM FILES (X86)\WINDOWS KITS\10\INCLUDE\10.0.17763.0\UM\STRINGAPISET.H
C:\PROGRAM FILES (X86)\WINDOWS KITS\10\INCLUDE\10.0.17763.0\UM\WINCON.H
C:\PROGRAM FILES (X86)\WINDOWS KITS\10\INCLUDE\10.0.17763.0\UM\WINCONTYPES.H
C:\PROGRAM FILES (X86)\WINDOWS KITS\10\INCLUDE\10.0.17763.0\UM\CONSOLEAPI.H
C:\PROGRAM FILES (X86)\WINDOWS KITS\10\INCLUDE\10.0.17763.0\UM\CONSOLEAPI2.H
C:\PROGRAM FILES (X86)\WINDOWS KITS\10\INCLUDE\10.0.17763.0\UM\CONSOLEAPI3.H
C:\PROGRAM FILES (X86)\WINDOWS KITS\10\INCLUDE\10.0.17763.0\UM\WINVER.H
C:\PROGRAM FILES (X86)\WINDOWS KITS\10\INCLUDE\10.0.17763.0\UM\VERRSRC.H
C:\PROGRAM FILES (X86)\WINDOWS KITS\10\INCLUDE\10.0.17763.0\UM\WINREG.H
C:\PROGRAM FILES (X86)\WINDOWS KITS\10\INCLUDE\10.0.17763.0\UM\REASON.H
C:\PROGRAM FILES (X86)\WINDOWS KITS\10\INCLUDE\10.0.17763.0\UM\WINNETWK.H
C:\PROGRAM FILES (X86)\WINDOWS KITS\10\INCLUDE\10.0.17763.0\SHARED\WNNC.H
C:\PROGRAM FILES (X86)\WINDOWS KITS\10\INCLUDE\10.0.17763.0\SHARED\STRALIGN.H
C:\PROGRAM FILES (X86)\WINDOWS KITS\10\INCLUDE\10.0.17763.0\UM\WINSVC.H
C:\PROGRAM FILES (X86)\WINDOWS KITS\10\INCLUDE\10.0.17763.0\UM\MCX.H
C:\PROGRAM FILES (X86)\WINDOWS KITS\10\INCLUDE\10.0.17763.0\UM\IMM.H
C:\PROGRAM FILES (X86)\WINDOWS KITS\10\INCLUDE\10.0.17763.0\UM\IME_CMODES.H
C:\PROGRAM FILES (X86)\WINDOWS KITS\10\INCLUDE\10.0.17763.0\UCRT\STDLIB.H
C:\PROGRAM FILES (X86)\WINDOWS KITS\10\INCLUDE\10.0.17763.0\UCRT\CORECRT_MALLOC.H
C:\PROGRAM FILES (X86)\WINDOWS KITS\10\INCLUDE\10.0.17763.0\UCRT\CORECRT_SEARCH.H
C:\PROGRAM FILES (X86)\WINDOWS KITS\10\INCLUDE\10.0.17763.0\UCRT\STDDEF.H
C:\PROGRAM FILES (X86)\WINDOWS KITS\10\INCLUDE\10.0.17763.0\UCRT\CORECRT_WSTDLIB.H
C:\PROGRAM FILES (X86)\MICROSOFT VISUAL STUDIO\2019\COMMUNITY\VC\TOOLS\MSVC\14.20.27508\INCLUDE\LIMITS.H
C:\USERS\OJEFFOLIVEIRA\SOURCE\REPOS\NBA\NBA\GAMESTATE.H
C:\PROGRAM FILES (X86)\MICROSOFT VISUAL STUDIO\2019\COMMUNITY\VC\TOOLS\MSVC\14.20.27508\INCLUDE\VECTOR
C:\PROGRAM FILES (X86)\MICROSOFT VISUAL STUDIO\2019\COMMUNITY\VC\TOOLS\MSVC\14.20.27508\INCLUDE\XMEMORY
C:\PROGRAM FILES (X86)\MICROSOFT VISUAL STUDIO\2019\COMMUNITY\VC\TOOLS\MSVC\14.20.27508\INCLUDE\XMEMORY0
C:\PROGRAM FILES (X86)\MICROSOFT VISUAL STUDIO\2019\COMMUNITY\VC\TOOLS\MSVC\14.20.27508\INCLUDE\CSTDINT
C:\PROGRAM FILES (X86)\MICROSOFT VISUAL STUDIO\2019\COMMUNITY\VC\TOOLS\MSVC\14.20.27508\INCLUDE\YVALS.H
C:\PROGRAM FILES (X86)\MICROSOFT VISUAL STUDIO\2019\COMMUNITY\VC\TOOLS\MSVC\14.20.27508\INCLUDE\YVALS_CORE.H
C:\PROGRAM FILES (X86)\MICROSOFT VISUAL STUDIO\2019\COMMUNITY\VC\TOOLS\MSVC\14.20.27508\INCLUDE\CRTDEFS.H
C:\PROGRAM FILES (X86)\MICROSOFT VISUAL STUDIO\2019\COMMUNITY\VC\TOOLS\MSVC\14.20.27508\INCLUDE\XKEYCHECK.H
C:\PROGRAM FILES (X86)\WINDOWS KITS\10\INCLUDE\10.0.17763.0\UCRT\CRTDBG.H
C:\PROGRAM FILES (X86)\MICROSOFT VISUAL STUDIO\2019\COMMUNITY\VC\TOOLS\MSVC\14.20.27508\INCLUDE\VCRUNTIME_NEW_DEBUG.H
C:\PROGRAM FILES (X86)\MICROSOFT VISUAL STUDIO\2019\COMMUNITY\VC\TOOLS\MSVC\14.20.27508\INCLUDE\VCRUNTIME_NEW.H
C:\PROGRAM FILES (X86)\MICROSOFT VISUAL STUDIO\2019\COMMUNITY\VC\TOOLS\MSVC\14.20.27508\INCLUDE\USE_ANSI.H
C:\PROGRAM FILES (X86)\MICROSOFT VISUAL STUDIO\2019\COMMUNITY\VC\TOOLS\MSVC\14.20.27508\INCLUDE\STDINT.H
C:\PROGRAM FILES (X86)\MICROSOFT VISUAL STUDIO\2019\COMMUNITY\VC\TOOLS\MSVC\14.20.27508\INCLUDE\CSTDLIB
C:\PROGRAM FILES (X86)\WINDOWS KITS\10\INCLUDE\10.0.17763.0\UCRT\MATH.H
C:\PROGRAM FILES (X86)\WINDOWS KITS\10\INCLUDE\10.0.17763.0\UCRT\CORECRT_MATH.H
C:\PROGRAM FILES (X86)\MICROSOFT VISUAL STUDIO\2019\COMMUNITY\VC\TOOLS\MSVC\14.20.27508\INCLUDE\LIMITS
C:\PROGRAM FILES (X86)\MICROSOFT VISUAL STUDIO\2019\COMMUNITY\VC\TOOLS\MSVC\14.20.27508\INCLUDE\CFLOAT
C:\PROGRAM FILES (X86)\WINDOWS KITS\10\INCLUDE\10.0.17763.0\UCRT\FLOAT.H
C:\PROGRAM FILES (X86)\MICROSOFT VISUAL STUDIO\2019\COMMUNITY\VC\TOOLS\MSVC\14.20.27508\INCLUDE\CLIMITS
C:\PROGRAM FILES (X86)\MICROSOFT VISUAL STUDIO\2019\COMMUNITY\VC\TOOLS\MSVC\14.20.27508\INCLUDE\CWCHAR
C:\PROGRAM FILES (X86)\MICROSOFT VISUAL STUDIO\2019\COMMUNITY\VC\TOOLS\MSVC\14.20.27508\INCLUDE\CSTDIO
C:\PROGRAM FILES (X86)\WINDOWS KITS\10\INCLUDE\10.0.17763.0\UCRT\STDIO.H
C:\PROGRAM FILES (X86)\WINDOWS KITS\10\INCLUDE\10.0.17763.0\UCRT\CORECRT_WSTDIO.H
C:\PROGRAM FILES (X86)\WINDOWS KITS\10\INCLUDE\10.0.17763.0\UCRT\CORECRT_STDIO_CONFIG.H
C:\PROGRAM FILES (X86)\WINDOWS KITS\10\INCLUDE\10.0.17763.0\UCRT\WCHAR.H
C:\PROGRAM FILES (X86)\WINDOWS KITS\10\INCLUDE\10.0.17763.0\UCRT\CORECRT_WCONIO.H
C:\PROGRAM FILES (X86)\WINDOWS KITS\10\INCLUDE\10.0.17763.0\UCRT\CORECRT_WDIRECT.H
C:\PROGRAM FILES (X86)\WINDOWS KITS\10\INCLUDE\10.0.17763.0\UCRT\CORECRT_WIO.H
C:\PROGRAM FILES (X86)\WINDOWS KITS\10\INCLUDE\10.0.17763.0\UCRT\CORECRT_SHARE.H
C:\PROGRAM FILES (X86)\WINDOWS KITS\10\INCLUDE\10.0.17763.0\UCRT\CORECRT_WPROCESS.H
C:\PROGRAM FILES (X86)\WINDOWS KITS\10\INCLUDE\10.0.17763.0\UCRT\CORECRT_WTIME.H
C:\PROGRAM FILES (X86)\WINDOWS KITS\10\INCLUDE\10.0.17763.0\UCRT\SYS\STAT.H
C:\PROGRAM FILES (X86)\WINDOWS KITS\10\INCLUDE\10.0.17763.0\UCRT\SYS\TYPES.H
C:\PROGRAM FILES (X86)\MICROSOFT VISUAL STUDIO\2019\COMMUNITY\VC\TOOLS\MSVC\14.20.27508\INCLUDE\XSTDDEF
C:\PROGRAM FILES (X86)\MICROSOFT VISUAL STUDIO\2019\COMMUNITY\VC\TOOLS\MSVC\14.20.27508\INCLUDE\CSTDDEF
C:\PROGRAM FILES (X86)\MICROSOFT VISUAL STUDIO\2019\COMMUNITY\VC\TOOLS\MSVC\14.20.27508\INCLUDE\XTR1COMMON
C:\PROGRAM FILES (X86)\MICROSOFT VISUAL STUDIO\2019\COMMUNITY\VC\TOOLS\MSVC\14.20.27508\INCLUDE\INITIALIZER_LIST
C:\PROGRAM FILES (X86)\MICROSOFT VISUAL STUDIO\2019\COMMUNITY\VC\TOOLS\MSVC\14.20.27508\INCLUDE\NEW
C:\PROGRAM FILES (X86)\MICROSOFT VISUAL STUDIO\2019\COMMUNITY\VC\TOOLS\MSVC\14.20.27508\INCLUDE\EXCEPTION
C:\PROGRAM FILES (X86)\MICROSOFT VISUAL STUDIO\2019\COMMUNITY\VC\TOOLS\MSVC\14.20.27508\INCLUDE\TYPE_TRAITS
C:\PROGRAM FILES (X86)\WINDOWS KITS\10\INCLUDE\10.0.17763.0\UCRT\MALLOC.H
C:\PROGRAM FILES (X86)\MICROSOFT VISUAL STUDIO\2019\COMMUNITY\VC\TOOLS\MSVC\14.20.27508\INCLUDE\VCRUNTIME_EXCEPTION.H
C:\PROGRAM FILES (X86)\MICROSOFT VISUAL STUDIO\2019\COMMUNITY\VC\TOOLS\MSVC\14.20.27508\INCLUDE\EH.H
C:\PROGRAM FILES (X86)\WINDOWS KITS\10\INCLUDE\10.0.17763.0\UCRT\CORECRT_TERMINATE.H
C:\PROGRAM FILES (X86)\MICROSOFT VISUAL STUDIO\2019\COMMUNITY\VC\TOOLS\MSVC\14.20.27508\INCLUDE\XUTILITY
C:\PROGRAM FILES (X86)\MICROSOFT VISUAL STUDIO\2019\COMMUNITY\VC\TOOLS\MSVC\14.20.27508\INCLUDE\CSTRING
C:\PROGRAM FILES (X86)\MICROSOFT VISUAL STUDIO\2019\COMMUNITY\VC\TOOLS\MSVC\14.20.27508\INCLUDE\UTILITY
C:\PROGRAM FILES (X86)\MICROSOFT VISUAL STUDIO\2019\COMMUNITY\VC\TOOLS\MSVC\14.20.27508\INCLUDE\XATOMIC0.H
C:\PROGRAM FILES (X86)\MICROSOFT VISUAL STUDIO\2019\COMMUNITY\VC\TOOLS\MSVC\14.20.27508\INCLUDE\INTRIN0.H
C:\SFML-2.5.1\INCLUDE\SFML\WINDOW.HPP
C:\SFML-2.5.1\INCLUDE\SFML\SYSTEM.HPP
C:\SFML-2.5.1\INCLUDE\SFML\CONFIG.HPP
C:\SFML-2.5.1\INCLUDE\SFML\SYSTEM\CLOCK.HPP
C:\SFML-2.5.1\INCLUDE\SFML\SYSTEM\EXPORT.HPP
C:\SFML-2.5.1\INCLUDE\SFML\SYSTEM\TIME.HPP
C:\SFML-2.5.1\INCLUDE\SFML\SYSTEM\ERR.HPP
C:\PROGRAM FILES (X86)\MICROSOFT VISUAL STUDIO\2019\COMMUNITY\VC\TOOLS\MSVC\14.20.27508\INCLUDE\OSTREAM
C:\PROGRAM FILES (X86)\MICROSOFT VISUAL STUDIO\2019\COMMUNITY\VC\TOOLS\MSVC\14.20.27508\INCLUDE\IOS
C:\PROGRAM FILES (X86)\MICROSOFT VISUAL STUDIO\2019\COMMUNITY\VC\TOOLS\MSVC\14.20.27508\INCLUDE\XLOCNUM
C:\PROGRAM FILES (X86)\MICROSOFT VISUAL STUDIO\2019\COMMUNITY\VC\TOOLS\MSVC\14.20.27508\INCLUDE\CMATH
C:\PROGRAM FILES (X86)\MICROSOFT VISUAL STUDIO\2019\COMMUNITY\VC\TOOLS\MSVC\14.20.27508\INCLUDE\XTGMATH.H
C:\PROGRAM FILES (X86)\MICROSOFT VISUAL STUDIO\2019\COMMUNITY\VC\TOOLS\MSVC\14.20.27508\INCLUDE\STREAMBUF
C:\PROGRAM FILES (X86)\MICROSOFT VISUAL STUDIO\2019\COMMUNITY\VC\TOOLS\MSVC\14.20.27508\INCLUDE\XIOSBASE
C:\PROGRAM FILES (X86)\WINDOWS KITS\10\INCLUDE\10.0.17763.0\UCRT\SHARE.H
C:\PROGRAM FILES (X86)\MICROSOFT VISUAL STUDIO\2019\COMMUNITY\VC\TOOLS\MSVC\14.20.27508\INCLUDE\SYSTEM_ERROR
C:\PROGRAM FILES (X86)\MICROSOFT VISUAL STUDIO\2019\COMMUNITY\VC\TOOLS\MSVC\14.20.27508\INCLUDE\CERRNO
C:\PROGRAM FILES (X86)\MICROSOFT VISUAL STUDIO\2019\COMMUNITY\VC\TOOLS\MSVC\14.20.27508\INCLUDE\STDEXCEPT
C:\PROGRAM FILES (X86)\MICROSOFT VISUAL STUDIO\2019\COMMUNITY\VC\TOOLS\MSVC\14.20.27508\INCLUDE\XSTRING
C:\PROGRAM FILES (X86)\MICROSOFT VISUAL STUDIO\2019\COMMUNITY\VC\TOOLS\MSVC\14.20.27508\INCLUDE\IOSFWD
C:\PROGRAM FILES (X86)\MICROSOFT VISUAL STUDIO\2019\COMMUNITY\VC\TOOLS\MSVC\14.20.27508\INCLUDE\XCALL_ONCE.H
C:\PROGRAM FILES (X86)\MICROSOFT VISUAL STUDIO\2019\COMMUNITY\VC\TOOLS\MSVC\14.20.27508\INCLUDE\XERRC.H
C:\PROGRAM FILES (X86)\MICROSOFT VISUAL STUDIO\2019\COMMUNITY\VC\TOOLS\MSVC\14.20.27508\INCLUDE\XLOCALE
C:\PROGRAM FILES (X86)\MICROSOFT VISUAL STUDIO\2019\COMMUNITY\VC\TOOLS\MSVC\14.20.27508\INCLUDE\MEMORY
C:\PROGRAM FILES (X86)\MICROSOFT VISUAL STUDIO\2019\COMMUNITY\VC\TOOLS\MSVC\14.20.27508\INCLUDE\TYPEINFO
C:\PROGRAM FILES (X86)\MICROSOFT VISUAL STUDIO\2019\COMMUNITY\VC\TOOLS\MSVC\14.20.27508\INCLUDE\VCRUNTIME_TYPEINFO.H
C:\PROGRAM FILES (X86)\MICROSOFT VISUAL STUDIO\2019\COMMUNITY\VC\TOOLS\MSVC\14.20.27508\INCLUDE\XFACET
C:\PROGRAM FILES (X86)\MICROSOFT VISUAL STUDIO\2019\COMMUNITY\VC\TOOLS\MSVC\14.20.27508\INCLUDE\XLOCINFO
C:\PROGRAM FILES (X86)\MICROSOFT VISUAL STUDIO\2019\COMMUNITY\VC\TOOLS\MSVC\14.20.27508\INCLUDE\XLOCINFO.H
C:\PROGRAM FILES (X86)\WINDOWS KITS\10\INCLUDE\10.0.17763.0\UCRT\LOCALE.H
C:\SFML-2.5.1\INCLUDE\SFML\SYSTEM\FILEINPUTSTREAM.HPP
C:\SFML-2.5.1\INCLUDE\SFML\SYSTEM\INPUTSTREAM.HPP
C:\SFML-2.5.1\INCLUDE\SFML\SYSTEM\NONCOPYABLE.HPP
C:\PROGRAM FILES (X86)\MICROSOFT VISUAL STUDIO\2019\COMMUNITY\VC\TOOLS\MSVC\14.20.27508\INCLUDE\STRING
C:\PROGRAM FILES (X86)\MICROSOFT VISUAL STUDIO\2019\COMMUNITY\VC\TOOLS\MSVC\14.20.27508\INCLUDE\CCTYPE
C:\SFML-2.5.1\INCLUDE\SFML\SYSTEM\LOCK.HPP
C:\SFML-2.5.1\INCLUDE\SFML\SYSTEM\MEMORYINPUTSTREAM.HPP
C:\SFML-2.5.1\INCLUDE\SFML\SYSTEM\MUTEX.HPP
C:\SFML-2.5.1\INCLUDE\SFML\SYSTEM\SLEEP.HPP
C:\SFML-2.5.1\INCLUDE\SFML\SYSTEM\STRING.HPP
C:\SFML-2.5.1\INCLUDE\SFML\SYSTEM\UTF.HPP
C:\PROGRAM FILES (X86)\MICROSOFT VISUAL STUDIO\2019\COMMUNITY\VC\TOOLS\MSVC\14.20.27508\INCLUDE\ALGORITHM
C:\PROGRAM FILES (X86)\MICROSOFT VISUAL STUDIO\2019\COMMUNITY\VC\TOOLS\MSVC\14.20.27508\INCLUDE\LOCALE
C:\PROGRAM FILES (X86)\MICROSOFT VISUAL STUDIO\2019\COMMUNITY\VC\TOOLS\MSVC\14.20.27508\INCLUDE\XLOCBUF
C:\PROGRAM FILES (X86)\MICROSOFT VISUAL STUDIO\2019\COMMUNITY\VC\TOOLS\MSVC\14.20.27508\INCLUDE\XLOCMES
C:\PROGRAM FILES (X86)\MICROSOFT VISUAL STUDIO\2019\COMMUNITY\VC\TOOLS\MSVC\14.20.27508\INCLUDE\XLOCMON
C:\PROGRAM FILES (X86)\MICROSOFT VISUAL STUDIO\2019\COMMUNITY\VC\TOOLS\MSVC\14.20.27508\INCLUDE\XLOCTIME
C:\PROGRAM FILES (X86)\MICROSOFT VISUAL STUDIO\2019\COMMUNITY\VC\TOOLS\MSVC\14.20.27508\INCLUDE\CTIME
C:\PROGRAM FILES (X86)\WINDOWS KITS\10\INCLUDE\10.0.17763.0\UCRT\TIME.H
C:\SFML-2.5.1\INCLUDE\SFML\SYSTEM\UTF.INL
C:\PROGRAM FILES (X86)\MICROSOFT VISUAL STUDIO\2019\COMMUNITY\VC\TOOLS\MSVC\14.20.27508\INCLUDE\ITERATOR
C:\PROGRAM FILES (X86)\MICROSOFT VISUAL STUDIO\2019\COMMUNITY\VC\TOOLS\MSVC\14.20.27508\INCLUDE\ISTREAM
C:\SFML-2.5.1\INCLUDE\SFML\SYSTEM\STRING.INL
C:\SFML-2.5.1\INCLUDE\SFML\SYSTEM\THREAD.HPP
C:\SFML-2.5.1\INCLUDE\SFML\SYSTEM\THREAD.INL
C:\SFML-2.5.1\INCLUDE\SFML\SYSTEM\THREADLOCAL.HPP
C:\SFML-2.5.1\INCLUDE\SFML\SYSTEM\THREADLOCALPTR.HPP
C:\SFML-2.5.1\INCLUDE\SFML\SYSTEM\THREADLOCALPTR.INL
C:\SFML-2.5.1\INCLUDE\SFML\SYSTEM\VECTOR2.HPP
C:\SFML-2.5.1\INCLUDE\SFML\SYSTEM\VECTOR2.INL
C:\SFML-2.5.1\INCLUDE\SFML\SYSTEM\VECTOR3.HPP
C:\SFML-2.5.1\INCLUDE\SFML\SYSTEM\VECTOR3.INL
C:\SFML-2.5.1\INCLUDE\SFML\WINDOW\CLIPBOARD.HPP
C:\SFML-2.5.1\INCLUDE\SFML\WINDOW\EXPORT.HPP
C:\SFML-2.5.1\INCLUDE\SFML\WINDOW\CONTEXT.HPP
C:\SFML-2.5.1\INCLUDE\SFML\WINDOW\GLRESOURCE.HPP
C:\SFML-2.5.1\INCLUDE\SFML\WINDOW\CONTEXTSETTINGS.HPP
C:\SFML-2.5.1\INCLUDE\SFML\WINDOW\CURSOR.HPP
C:\SFML-2.5.1\INCLUDE\SFML\WINDOW\EVENT.HPP
C:\SFML-2.5.1\INCLUDE\SFML\WINDOW\JOYSTICK.HPP
C:\SFML-2.5.1\INCLUDE\SFML\WINDOW\KEYBOARD.HPP
C:\SFML-2.5.1\INCLUDE\SFML\WINDOW\MOUSE.HPP
C:\SFML-2.5.1\INCLUDE\SFML\WINDOW\SENSOR.HPP
C:\SFML-2.5.1\INCLUDE\SFML\WINDOW\TOUCH.HPP
C:\SFML-2.5.1\INCLUDE\SFML\WINDOW\VIDEOMODE.HPP
C:\SFML-2.5.1\INCLUDE\SFML\WINDOW\WINDOW.HPP
C:\SFML-2.5.1\INCLUDE\SFML\WINDOW\WINDOWHANDLE.HPP
C:\SFML-2.5.1\INCLUDE\SFML\WINDOW\WINDOWSTYLE.HPP
C:\USERS\OJEFFOLIVEIRA\SOURCE\REPOS\NBA\NBA\GUICOMPONENTE.H
C:\USERS\OJEFFOLIVEIRA\SOURCE\REPOS\NBA\NBA\GUICONTAINER.H
C:\SFML-2.5.1\INCLUDE\SFML\GRAPHICS.HPP
C:\SFML-2.5.1\INCLUDE\SFML\GRAPHICS\BLENDMODE.HPP
C:\SFML-2.5.1\INCLUDE\SFML\GRAPHICS\EXPORT.HPP
C:\SFML-2.5.1\INCLUDE\SFML\GRAPHICS\CIRCLESHAPE.HPP
C:\SFML-2.5.1\INCLUDE\SFML\GRAPHICS\SHAPE.HPP
C:\SFML-2.5.1\INCLUDE\SFML\GRAPHICS\DRAWABLE.HPP
C:\SFML-2.5.1\INCLUDE\SFML\GRAPHICS\RENDERSTATES.HPP
C:\SFML-2.5.1\INCLUDE\SFML\GRAPHICS\TRANSFORM.HPP
C:\SFML-2.5.1\INCLUDE\SFML\GRAPHICS\RECT.HPP
C:\SFML-2.5.1\INCLUDE\SFML\GRAPHICS\RECT.INL
C:\SFML-2.5.1\INCLUDE\SFML\GRAPHICS\TRANSFORMABLE.HPP
C:\SFML-2.5.1\INCLUDE\SFML\GRAPHICS\VERTEXARRAY.HPP
C:\SFML-2.5.1\INCLUDE\SFML\GRAPHICS\VERTEX.HPP
C:\SFML-2.5.1\INCLUDE\SFML\GRAPHICS\COLOR.HPP
C:\SFML-2.5.1\INCLUDE\SFML\GRAPHICS\PRIMITIVETYPE.HPP
C:\SFML-2.5.1\INCLUDE\SFML\GRAPHICS\CONVEXSHAPE.HPP
C:\SFML-2.5.1\INCLUDE\SFML\GRAPHICS\FONT.HPP
C:\SFML-2.5.1\INCLUDE\SFML\GRAPHICS\GLYPH.HPP
C:\SFML-2.5.1\INCLUDE\SFML\GRAPHICS\TEXTURE.HPP
C:\SFML-2.5.1\INCLUDE\SFML\GRAPHICS\IMAGE.HPP
C:\PROGRAM FILES (X86)\MICROSOFT VISUAL STUDIO\2019\COMMUNITY\VC\TOOLS\MSVC\14.20.27508\INCLUDE\MAP
C:\PROGRAM FILES (X86)\MICROSOFT VISUAL STUDIO\2019\COMMUNITY\VC\TOOLS\MSVC\14.20.27508\INCLUDE\TUPLE
C:\PROGRAM FILES (X86)\MICROSOFT VISUAL STUDIO\2019\COMMUNITY\VC\TOOLS\MSVC\14.20.27508\INCLUDE\XTREE
C:\SFML-2.5.1\INCLUDE\SFML\GRAPHICS\RECTANGLESHAPE.HPP
C:\SFML-2.5.1\INCLUDE\SFML\GRAPHICS\RENDERTARGET.HPP
C:\SFML-2.5.1\INCLUDE\SFML\GRAPHICS\VIEW.HPP
C:\SFML-2.5.1\INCLUDE\SFML\GRAPHICS\RENDERTEXTURE.HPP
C:\SFML-2.5.1\INCLUDE\SFML\GRAPHICS\RENDERWINDOW.HPP
C:\SFML-2.5.1\INCLUDE\SFML\GRAPHICS\SHADER.HPP
C:\SFML-2.5.1\INCLUDE\SFML\GRAPHICS\GLSL.HPP
C:\SFML-2.5.1\INCLUDE\SFML\GRAPHICS\GLSL.INL
C:\SFML-2.5.1\INCLUDE\SFML\GRAPHICS\SPRITE.HPP
C:\SFML-2.5.1\INCLUDE\SFML\GRAPHICS\TEXT.HPP
C:\SFML-2.5.1\INCLUDE\SFML\GRAPHICS\VERTEXBUFFER.HPP
C:\PROGRAM FILES (X86)\WINDOWS KITS\10\INCLUDE\10.0.17763.0\UCRT\MEMORY.H
C:\PROGRAM FILES (X86)\WINDOWS KITS\10\INCLUDE\10.0.17763.0\UCRT\TCHAR.H
^C:\USERS\OJEFFOLIVEIRA\SOURCE\REPOS\NBA\NBA\AVATAR.CPP
C:\USERS\OJEFFOLIVEIRA\SOURCE\REPOS\NBA\NBA\RELEASE\NBA.PCH
C:\USERS\OJEFFOLIVEIRA\SOURCE\REPOS\NBA\NBA\AVATAR.H
^C:\USERS\OJEFFOLIVEIRA\SOURCE\REPOS\NBA\NBA\GAMESTATE.CPP
C:\USERS\OJEFFOLIVEIRA\SOURCE\REPOS\NBA\NBA\RELEASE\NBA.PCH
^C:\USERS\OJEFFOLIVEIRA\SOURCE\REPOS\NBA\NBA\GUIBASE.CPP
C:\USERS\OJEFFOLIVEIRA\SOURCE\REPOS\NBA\NBA\RELEASE\NBA.PCH
C:\USERS\OJEFFOLIVEIRA\SOURCE\REPOS\NBA\NBA\GUIBASE.H
^C:\USERS\OJEFFOLIVEIRA\SOURCE\REPOS\NBA\NBA\GUIBOTAO.CPP
C:\USERS\OJEFFOLIVEIRA\SOURCE\REPOS\NBA\NBA\RELEASE\NBA.PCH
C:\USERS\OJEFFOLIVEIRA\SOURCE\REPOS\NBA\NBA\GUIBOTAO.H
C:\USERS\OJEFFOLIVEIRA\SOURCE\REPOS\NBA\NBA\GUILABEL.H
C:\USERS\OJEFFOLIVEIRA\SOURCE\REPOS\NBA\NBA\GUIIMAGEM.H
C:\PROGRAM FILES (X86)\WINDOWS KITS\10\INCLUDE\10.0.17763.0\UCRT\MATH.H
^C:\USERS\OJEFFOLIVEIRA\SOURCE\REPOS\NBA\NBA\GUICHECKBOX.CPP
C:\USERS\OJEFFOLIVEIRA\SOURCE\REPOS\NBA\NBA\RELEASE\NBA.PCH
C:\USERS\OJEFFOLIVEIRA\SOURCE\REPOS\NBA\NBA\GUICHECKBOX.H
^C:\USERS\OJEFFOLIVEIRA\SOURCE\REPOS\NBA\NBA\GUICOMBORDA.CPP
C:\USERS\OJEFFOLIVEIRA\SOURCE\REPOS\NBA\NBA\RELEASE\NBA.PCH
C:\USERS\OJEFFOLIVEIRA\SOURCE\REPOS\NBA\NBA\GUICOMBORDA.H
^C:\USERS\OJEFFOLIVEIRA\SOURCE\REPOS\NBA\NBA\GUICOMPONENTE.CPP
C:\USERS\OJEFFOLIVEIRA\SOURCE\REPOS\NBA\NBA\RELEASE\NBA.PCH
^C:\USERS\OJEFFOLIVEIRA\SOURCE\REPOS\NBA\NBA\GUICONTAINER.CPP
C:\USERS\OJEFFOLIVEIRA\SOURCE\REPOS\NBA\NBA\RELEASE\NBA.PCH
C:\USERS\OJEFFOLIVEIRA\SOURCE\REPOS\NBA\NBA\GUIBOTAO.H
C:\USERS\OJEFFOLIVEIRA\SOURCE\REPOS\NBA\NBA\GUILABEL.H
C:\USERS\OJEFFOLIVEIRA\SOURCE\REPOS\NBA\NBA\GUIIMAGEM.H
C:\PROGRAM FILES (X86)\WINDOWS KITS\10\INCLUDE\10.0.17763.0\UCRT\MATH.H
^C:\USERS\OJEFFOLIVEIRA\SOURCE\REPOS\NBA\NBA\GUIIMAGEM.CPP
C:\USERS\OJEFFOLIVEIRA\SOURCE\REPOS\NBA\NBA\RELEASE\NBA.PCH
C:\USERS\OJEFFOLIVEIRA\SOURCE\REPOS\NBA\NBA\GUIIMAGEM.H
C:\PROGRAM FILES (X86)\WINDOWS KITS\10\INCLUDE\10.0.17763.0\UCRT\MATH.H
^C:\USERS\OJEFFOLIVEIRA\SOURCE\REPOS\NBA\NBA\GUILABEL.CPP
C:\USERS\OJEFFOLIVEIRA\SOURCE\REPOS\NBA\NBA\RELEASE\NBA.PCH
C:\USERS\OJEFFOLIVEIRA\SOURCE\REPOS\NBA\NBA\GUILABEL.H
^C:\USERS\OJEFFOLIVEIRA\SOURCE\REPOS\NBA\NBA\GUIOPCAO.CPP
C:\USERS\OJEFFOLIVEIRA\SOURCE\REPOS\NBA\NBA\RELEASE\NBA.PCH
C:\USERS\OJEFFOLIVEIRA\SOURCE\REPOS\NBA\NBA\GUIOPCAO.H
^C:\USERS\OJEFFOLIVEIRA\SOURCE\REPOS\NBA\NBA\GUISCROLLER.CPP
C:\USERS\OJEFFOLIVEIRA\SOURCE\REPOS\NBA\NBA\RELEASE\NBA.PCH
C:\USERS\OJEFFOLIVEIRA\SOURCE\REPOS\NBA\NBA\GUISCROLLER.H
^C:\USERS\OJEFFOLIVEIRA\SOURCE\REPOS\NBA\NBA\JOGO.CPP
C:\USERS\OJEFFOLIVEIRA\SOURCE\REPOS\NBA\NBA\RELEASE\NBA.PCH
C:\USERS\OJEFFOLIVEIRA\SOURCE\REPOS\NBA\NBA\JOGO.H
^C:\USERS\OJEFFOLIVEIRA\SOURCE\REPOS\NBA\NBA\NBA.CPP
C:\USERS\OJEFFOLIVEIRA\SOURCE\REPOS\NBA\NBA\RELEASE\NBA.PCH
C:\USERS\OJEFFOLIVEIRA\SOURCE\REPOS\NBA\NBA\INCLUIRGUI.H
C:\USERS\OJEFFOLIVEIRA\SOURCE\REPOS\NBA\NBA\GUIIMAGEM.H
C:\PROGRAM FILES (X86)\WINDOWS KITS\10\INCLUDE\10.0.17763.0\UCRT\MATH.H
C:\USERS\OJEFFOLIVEIRA\SOURCE\REPOS\NBA\NBA\GUILABEL.H
C:\USERS\OJEFFOLIVEIRA\SOURCE\REPOS\NBA\NBA\GUIBOTAO.H
C:\SFML-2.5.1\INCLUDE\SFML\GPUPREFERENCE.HPP
C:\SFML-2.5.1\INCLUDE\SFML\NETWORK.HPP
C:\SFML-2.5.1\INCLUDE\SFML\NETWORK\FTP.HPP
C:\SFML-2.5.1\INCLUDE\SFML\NETWORK\EXPORT.HPP
C:\SFML-2.5.1\INCLUDE\SFML\NETWORK\TCPSOCKET.HPP
C:\SFML-2.5.1\INCLUDE\SFML\NETWORK\SOCKET.HPP
C:\SFML-2.5.1\INCLUDE\SFML\NETWORK\SOCKETHANDLE.HPP
C:\SFML-2.5.1\INCLUDE\SFML\NETWORK\HTTP.HPP
C:\SFML-2.5.1\INCLUDE\SFML\NETWORK\IPADDRESS.HPP
C:\SFML-2.5.1\INCLUDE\SFML\NETWORK\PACKET.HPP
C:\SFML-2.5.1\INCLUDE\SFML\NETWORK\SOCKETSELECTOR.HPP
C:\SFML-2.5.1\INCLUDE\SFML\NETWORK\TCPLISTENER.HPP
C:\SFML-2.5.1\INCLUDE\SFML\NETWORK\UDPSOCKET.HPP
